#VRML V2.0 utf8


Group {
  children 
    Group {
      children [ 
        Group {
          children 
            Transform {
              translation 0 0.19999999 0
              rotation 0 0 1  0
              scale 1 1 1
              scaleOrientation 0 0 1  0
              children 
                Transform {
                  translation 0.00029505399 -0.21628471 0.001346588
                  rotation -0.37796432 0.65465385 0.65465355  2.4188585
                  scale 0.99999994 1.0000001 1
                  scaleOrientation -6.8131581e-006 8.1938606e-007 -1.0000001  0.78539801
                  children 
                    Shape {
                      appearance 
                      Appearance {
                        material 
                        Material {
                          diffuseColor 0.63686252 0.65882319 0.74980402

                        }

                      }
                      geometry 
                      IndexedFaceSet {
                        coord 
                        Coordinate {
                          point [ -0.001313149 -0.002891242 -0.01089769,
                              -0.001557707 -0.002733707 0.01429575,
                              -0.001426458 0.0028691881 -0.01319205,
                              -0.00151056 0.002936661 0.016851479,
                              -0.00076404301 -0.0031676879 -0.0059221382,
                              -0.00076407602 -0.003167748 0.0040777922,
                              -0.00065013702 -0.0032331939 -0.000358713,
                              -0.000100971 -0.0035501709 0.0095891347,
                              0.0050995341 -0.0076565142 0.01544076,
                              0.001461088 0.001321494 -0.01025754,
                              0.0029070971 0.00048586901 0.0064096451,
                              0.002939879 0.000467253 0.01447951,
                              0.002755343 0.00057369098 -0.003108501,
                              0.002287983 -0.0049296608 -0.0032486911,
                              0.01011729 -0.0079158545 0.00059734099,
                              0.0080432892 -0.001517295 -0.01345098,
                              0.0037754769 -1.6497301e-005 0.0066558709,
                              0.01395058 -0.0037512181 0.01677751,
                              0.02978003 -0.01974022 0.01519525,
                              0.030121259 -0.017021829 0.01554739,
                              0.031888179 -0.020326311 0.01360148,
                              0.03268623 -0.01798486 0.016601499,
                              0.032149971 -0.024479499 0.016601499,
                              0.036649998 -0.01668548 0.01360148 ]

                        }
                        normal 
                        Normal {
                          vector [  ]

                        }
                        coordIndex [ 14, 19, 18, -1, 23, 20, 19, -1,
                            23, 19, 14, -1, 14, 18, 20, -1,
                            21, 22, 23, -1, 23, 22, 20, -1,
                            21, 19, 20, -1, 21, 20, 18, -1,
                            20, 22, 14, -1, 14, 22, 8, -1,
                            21, 23, 17, -1, 17, 23, 14, -1,
                            14, 15, 17, -1, 19, 21, 17, -1,
                            22, 18, 8, -1, 8, 18, 19, -1,
                            8, 19, 17, -1, 22, 21, 18, -1,
                            2, 0, 3, -1, 3, 0, 1, -1,
                            10, 12, 3, -1, 3, 9, 2, -1,
                            15, 12, 16, -1, 15, 16, 17, -1,
                            17, 16, 11, -1, 3, 12, 9, -1,
                            3, 11, 10, -1, 2, 9, 15, -1,
                            17, 11, 3, -1, 15, 14, 2, -1,
                            2, 14, 0, -1, 8, 17, 1, -1,
                            1, 17, 3, -1, 12, 4, 9, -1,
                            9, 4, 0, -1, 9, 0, 13, -1,
                            9, 13, 15, -1, 15, 13, 4, -1,
                            15, 4, 12, -1, 10, 5, 12, -1,
                            12, 5, 6, -1, 12, 6, 13, -1,
                            12, 13, 16, -1, 16, 13, 5, -1,
                            16, 5, 10, -1, 11, 1, 10, -1,
                            10, 1, 7, -1, 10, 7, 16, -1,
                            16, 7, 8, -1, 16, 8, 11, -1,
                            11, 8, 1, -1, 13, 14, 8, -1,
                            8, 5, 13, -1, 0, 4, 1, -1,
                            1, 4, 5, -1, 4, 6, 5, -1,
                            8, 7, 5, -1, 13, 0, 14, -1,
                            1, 5, 7, -1, 13, 6, 4 ]
                        ccw TRUE
                        solid FALSE
                        convex TRUE
                        creaseAngle 0

                      }

                    }

                }

            }

        },
          
        Group {
          children 
            Transform {
              translation 0 0.19999999 0
              rotation 0 0 1  0
              scale 1 1 1
              scaleOrientation 0 0 1  0
              children 
                Transform {
                  translation 0.00154379 -0.18235791 0.001348495
                  rotation 0.77459651 0.44721365 -0.4472138  1.8234766
                  scale 1 1.0000002 1
                  scaleOrientation 6.3108325e-007 3.6619998e-008 -1.0000001  0.78539801
                  children 
                    Shape {
                      appearance 
                      Appearance {
                        material 
                        Material {
                          diffuseColor 0.63686252 0.65882319 0.74980402

                        }

                      }
                      geometry 
                      IndexedFaceSet {
                        coord 
                        Coordinate {
                          point [ -0.001313149 -0.002891242 -0.01089769,
                              -0.001557707 -0.002733707 0.01429575,
                              -0.001426458 0.0028691881 -0.01319205,
                              -0.00151056 0.002936661 0.016851479,
                              -0.00076404301 -0.0031676879 -0.0059221382,
                              -0.00076407602 -0.003167748 0.0040777922,
                              -0.00065013702 -0.0032331939 -0.000358713,
                              -0.000100971 -0.0035501709 0.0095891347,
                              0.0050995341 -0.0076565142 0.01544076,
                              0.001461088 0.001321494 -0.01025754,
                              0.0029070971 0.00048586901 0.0064096451,
                              0.002939879 0.000467253 0.01447951,
                              0.002755343 0.00057369098 -0.003108501,
                              0.002287983 -0.0049296608 -0.0032486911,
                              0.01011729 -0.0079158545 0.00059734099,
                              0.0080432892 -0.001517295 -0.01345098,
                              0.0037754769 -1.6497301e-005 0.0066558709,
                              0.01395058 -0.0037512181 0.01677751,
                              0.02978003 -0.01974022 0.01519525,
                              0.030121259 -0.017021829 0.01554739,
                              0.031888179 -0.020326311 0.01360148,
                              0.03268623 -0.01798486 0.016601499,
                              0.032149971 -0.024479499 0.016601499,
                              0.036649998 -0.01668548 0.01360148 ]

                        }
                        normal 
                        Normal {
                          vector [  ]

                        }
                        coordIndex [ 14, 19, 18, -1, 23, 20, 19, -1,
                            23, 19, 14, -1, 14, 18, 20, -1,
                            21, 22, 23, -1, 23, 22, 20, -1,
                            21, 19, 20, -1, 21, 20, 18, -1,
                            20, 22, 14, -1, 14, 22, 8, -1,
                            21, 23, 17, -1, 17, 23, 14, -1,
                            14, 15, 17, -1, 19, 21, 17, -1,
                            22, 18, 8, -1, 8, 18, 19, -1,
                            8, 19, 17, -1, 22, 21, 18, -1,
                            2, 0, 3, -1, 3, 0, 1, -1,
                            10, 12, 3, -1, 3, 9, 2, -1,
                            15, 12, 16, -1, 15, 16, 17, -1,
                            17, 16, 11, -1, 3, 12, 9, -1,
                            3, 11, 10, -1, 2, 9, 15, -1,
                            17, 11, 3, -1, 15, 14, 2, -1,
                            2, 14, 0, -1, 8, 17, 1, -1,
                            1, 17, 3, -1, 12, 4, 9, -1,
                            9, 4, 0, -1, 9, 0, 13, -1,
                            9, 13, 15, -1, 15, 13, 4, -1,
                            15, 4, 12, -1, 10, 5, 12, -1,
                            12, 5, 6, -1, 12, 6, 13, -1,
                            12, 13, 16, -1, 16, 13, 5, -1,
                            16, 5, 10, -1, 11, 1, 10, -1,
                            10, 1, 7, -1, 10, 7, 16, -1,
                            16, 7, 8, -1, 16, 8, 11, -1,
                            11, 8, 1, -1, 13, 14, 8, -1,
                            8, 5, 13, -1, 0, 4, 1, -1,
                            1, 4, 5, -1, 4, 6, 5, -1,
                            8, 7, 5, -1, 13, 0, 14, -1,
                            1, 5, 7, -1, 13, 6, 4 ]
                        ccw TRUE
                        solid FALSE
                        convex TRUE
                        creaseAngle 0

                      }

                    }

                }

            }

        },
          
        Group {
          children 
            Transform {
              translation 0 0.0082000187 5.9604599e-008
              rotation 0 0 1  0
              scale 1 1 1
              scaleOrientation 0 0 1  0

            }

        },
          
        Group {
          children 
            Transform {
              translation 0 -0.0081999907 5.9604599e-008
              rotation 0 0 1  0
              scale 1 1 1
              scaleOrientation 0 0 1  0

            }

        } ]

    }

}
